Data607 - NLP
…
#Get joyful words from nrc
nrc_joy <- get_sentiments("nrc") %>% 
  filter(sentiment == "joy")

#Get count of joyful words from Holmes series
tidy_books %>%
  inner_join(nrc_joy) %>%
  count(word, sort = TRUE)

## Joining, by = "word"

## # A tibble: 378 x 2
##    word           n
##    <chr>      <int>
##  1 good         285
##  2 found        210
##  3 friend       154
##  4 hope         100
##  5 companion     88
##  6 treasure      77
##  7 true          55
##  8 save          53
##  9 remarkable    50
## 10 money         49
## # ... with 368 more rows
…
